INFO - 2025-06-14 17:17:17,512 - conftest.py:21 -[conftest:start_test_and_end] - -------------接口测试开始--------------
INFO - 2025-06-14 17:17:17,520 - sendrequest.py:142 -[sendrequest:run_main] - 接口名称：搜索用户
INFO - 2025-06-14 17:17:17,520 - sendrequest.py:143 -[sendrequest:run_main] - 请求地址：http://127.0.0.1:8787/ssm_web/user/findAllUserByPage
INFO - 2025-06-14 17:17:17,520 - sendrequest.py:144 -[sendrequest:run_main] - 请求方式：post
INFO - 2025-06-14 17:17:17,520 - sendrequest.py:145 -[sendrequest:run_main] - 测试用例名称：16.验证分页信息完整性
INFO - 2025-06-14 17:17:17,520 - sendrequest.py:146 -[sendrequest:run_main] - 请求头：{'Content-Type': 'application/json', 'Authorization': 'e30bb109-1bcb-4762-914d-7010d331cc01'}
INFO - 2025-06-14 17:17:17,522 - sendrequest.py:154 -[sendrequest:run_main] - 请求参数：{'json': {'currentPage': 1, 'pageSize': 10}}
INFO - 2025-06-14 17:17:17,536 - sendrequest.py:108 -[sendrequest:send_request] - 接口返回信息：{
  "content": {
    "firstPage": 1,
    "hasNextPage": true,
    "hasPreviousPage": false,
    "isFirstPage": true,
    "isLastPage": false,
    "lastPage": 2,
    "list": [
      {
        "account_non_expired": "1",
        "account_non_locked": "1",
        "create_time": "10/7/2020",
        "credentials_non_expired": "1",
        "id": "100030011",
        "is_del": "0",
        "name": "15321919666",
        "password": "123456",
        "phone": "15321919666",
        "portrait": "https://edu-lagou.oss-cn-beijing.aliyuncs.com/images/2020/06/28/15933251448762927.png",
        "reg_ip": "",
        "status": "DISABLE",
        "update_time": "10/7/2020"
      },
      {
        "account_non_expired": "1",
        "account_non_locked": "1",
        "create_time": "10/7/2020",
        "credentials_non_expired": "1",
        "id": "100030012",
        "is_del": "0",
        "name": "15588886623",
        "password": "123456",
        "phone": "15588886623",
        "portrait": "",
        "reg_ip": "",
        "status": "DISABLE",
        "update_time": "10/7/2020"
      },
      {
        "account_non_expired": "1",
        "account_non_locked": "1",
        "create_time": "10/7/2020",
        "credentials_non_expired": "1",
        "id": "100030013",
        "is_del": "0",
        "name": "15588886665",
        "password": "123456",
        "phone": "15588886665",
        "portrait": "",
        "reg_ip": "",
        "status": "DISABLE",
        "update_time": "10/7/2020"
      },
      {
        "account_non_expired": "1",
        "account_non_locked": "1",
        "create_time": "10/7/2020",
        "credentials_non_expired": "1",
        "id": "100030014",
        "is_del": "0",
        "name": "15588886664",
        "password": "123456",
        "phone": "15588886664",
        "portrait": "",
        "reg_ip": "",
        "status": "ENABLE",
        "update_time": "10/7/2020"
      },
      {
        "account_non_expired": "1",
        "account_non_locked": "1",
        "create_time": "10/7/2020",
        "credentials_non_expired": "1",
        "id": "100030015",
        "is_del": "0",
        "name": "15588886663",
        "password": "123456",
        "phone": "15588886663",
        "portrait": "",
        "reg_ip": "",
        "status": "ENABLE",
        "update_time": "10/7/2020"
      },
      {
        "account_non_expired": "1",
        "account_non_locked": "1",
        "create_time": "10/7/2020",
        "credentials_non_expired": "1",
        "id": "100030016",
        "is_del": "0",
        "name": "15588886644",
        "password": "123456",
        "phone": "15588886644",
        "portrait": "",
        "reg_ip": "",
        "status": "ENABLE",
        "update_time": "10/7/2020"
      },
      {
        "account_non_expired": "1",
        "account_non_locked": "1",
        "create_time": "10/7/2020",
        "credentials_non_expired": "1",
        "id": "100030017",
        "is_del": "1",
        "name": "15811111111",
        "password": "123456",
        "phone": "15811111111",
        "portrait": "",
        "reg_ip": "",
        "status": "DISABLE",
        "update_time": "13/7/2020"
      },
      {
        "account_non_expired": "1",
        "account_non_locked": "1",
        "create_time": "10/7/2020",
        "credentials_non_expired": "1",
        "id": "100030018",
        "is_del": "0",
        "name": "15588886123",
        "password": "123456",
        "phone": "15588886123",
        "portrait": "",
        "reg_ip": "",
        "status": "ENABLE",
        "update_time": "10/7/2020"
      },
      {
        "account_non_expired": "1",
        "account_non_locked": "1",
        "create_time": "10/7/2020",
        "credentials_non_expired": "1",
        "id": "100030019",
        "is_del": "0",
        "name": "15588886234",
        "password": "123456",
        "phone": "15588886234",
        "portrait": "https://edu-lagou.oss-cn-beijing.aliyuncs.com/images/2020/07/10/15943594999396473.png",
        "reg_ip": "",
        "status": "ENABLE",
        "update_time": "10/7/2020"
      },
      {
        "account_non_expired": "1",
        "account_non_locked": "1",
        "create_time": "10/7/2020",
        "credentials_non_expired": "1",
        "id": "100030020",
        "is_del": "0",
        "name": "18211111111",
        "password": "123456",
        "phone": "18211111111",
        "portrait": "",
        "reg_ip": "",
        "status": "ENABLE",
        "update_time": "10/7/2020"
      }
    ],
    "nextPage": 2,
    "pageNum": 1,
    "pageSize": 10,
    "prePage": 0,
    "size": 10,
    "total": 13
  },
  "message": "\u54cd\u5e94\u6210\u529f",
  "status_code": 200,
  "success": true
}

INFO - 2025-06-14 17:17:17,536 - assertions.py:308 -[assertions:assert_result] - yaml文件预期结果：[{'contains': {'message': '响应成功'}}, {'contains': {'status_code': 200}}, {'contains': {'success': True}}, {'contains': {'content.firstPage': 1}}, {'contains': {'content.prePage': 0}}, {'contains': {'content.nextPage': 2}}, {'contains': {'content.lastPage': 2}}, {'contains': {'content.isFirstPage': True}}, {'contains': {'content.isLastPage': False}}, {'contains': {'content.hasPreviousPage': False}}, {'contains': {'content.hasNextPage': True}}]
INFO - 2025-06-14 17:17:17,536 - assertions.py:65 -[assertions:contains_assert] - 响应文本断言成功：预期结果【响应成功】,实际结果【响应成功】
ERROR - 2025-06-14 17:17:17,536 - assertions.py:41 -[assertions:contains_assert] - 接口返回码包含断言成功：预期结果【200】,实际结果【200】
INFO - 2025-06-14 17:17:17,536 - assertions.py:65 -[assertions:contains_assert] - 响应文本断言成功：预期结果【True】,实际结果【[True]】
INFO - 2025-06-14 17:17:17,536 - assertions.py:65 -[assertions:contains_assert] - 响应文本断言成功：预期结果【1】,实际结果【[1]】
INFO - 2025-06-14 17:17:17,536 - assertions.py:65 -[assertions:contains_assert] - 响应文本断言成功：预期结果【0】,实际结果【[0]】
INFO - 2025-06-14 17:17:17,536 - assertions.py:65 -[assertions:contains_assert] - 响应文本断言成功：预期结果【2】,实际结果【[2]】
INFO - 2025-06-14 17:17:17,536 - assertions.py:65 -[assertions:contains_assert] - 响应文本断言成功：预期结果【2】,实际结果【[2]】
INFO - 2025-06-14 17:17:17,536 - assertions.py:65 -[assertions:contains_assert] - 响应文本断言成功：预期结果【True】,实际结果【[True]】
INFO - 2025-06-14 17:17:17,541 - assertions.py:65 -[assertions:contains_assert] - 响应文本断言成功：预期结果【False】,实际结果【[False]】
INFO - 2025-06-14 17:17:17,541 - assertions.py:65 -[assertions:contains_assert] - 响应文本断言成功：预期结果【False】,实际结果【[False]】
INFO - 2025-06-14 17:17:17,541 - assertions.py:65 -[assertions:contains_assert] - 响应文本断言成功：预期结果【True】,实际结果【[True]】
INFO - 2025-06-14 17:17:17,541 - assertions.py:339 -[assertions:assert_result] - 测试成功
INFO - 2025-06-14 17:17:17,541 - conftest.py:23 -[conftest:start_test_and_end] - -------------接口测试结束--------------
