{
    "content": {
        "firstPage": 1,
        "hasNextPage": true,
        "hasPreviousPage": false,
        "isFirstPage": true,
        "isLastPage": false,
        "lastPage": 2,
        "list": [
            {
                "account_non_expired": "1",
                "account_non_locked": "1",
                "create_time": "10/7/2020",
                "credentials_non_expired": "1",
                "id": "100030011",
                "is_del": "0",
                "name": "15321919666",
                "password": "123456",
                "phone": "15321919666",
                "portrait": "https://edu-lagou.oss-cn-beijing.aliyuncs.com/images/2020/06/28/15933251448762927.png",
                "reg_ip": "",
                "status": "DISABLE",
                "update_time": "10/7/2020"
            },
            {
                "account_non_expired": "1",
                "account_non_locked": "1",
                "create_time": "10/7/2020",
                "credentials_non_expired": "1",
                "id": "100030012",
                "is_del": "0",
                "name": "15588886623",
                "password": "123456",
                "phone": "15588886623",
                "portrait": "",
                "reg_ip": "",
                "status": "DISABLE",
                "update_time": "10/7/2020"
            },
            {
                "account_non_expired": "1",
                "account_non_locked": "1",
                "create_time": "10/7/2020",
                "credentials_non_expired": "1",
                "id": "100030013",
                "is_del": "0",
                "name": "15588886665",
                "password": "123456",
                "phone": "15588886665",
                "portrait": "",
                "reg_ip": "",
                "status": "DISABLE",
                "update_time": "10/7/2020"
            },
            {
                "account_non_expired": "1",
                "account_non_locked": "1",
                "create_time": "10/7/2020",
                "credentials_non_expired": "1",
                "id": "100030014",
                "is_del": "0",
                "name": "15588886664",
                "password": "123456",
                "phone": "15588886664",
                "portrait": "",
                "reg_ip": "",
                "status": "ENABLE",
                "update_time": "10/7/2020"
            },
            {
                "account_non_expired": "1",
                "account_non_locked": "1",
                "create_time": "10/7/2020",
                "credentials_non_expired": "1",
                "id": "100030015",
                "is_del": "0",
                "name": "15588886663",
                "password": "123456",
                "phone": "15588886663",
                "portrait": "",
                "reg_ip": "",
                "status": "ENABLE",
                "update_time": "10/7/2020"
            },
            {
                "account_non_expired": "1",
                "account_non_locked": "1",
                "create_time": "10/7/2020",
                "credentials_non_expired": "1",
                "id": "100030016",
                "is_del": "0",
                "name": "15588886644",
                "password": "123456",
                "phone": "15588886644",
                "portrait": "",
                "reg_ip": "",
                "status": "ENABLE",
                "update_time": "10/7/2020"
            },
            {
                "account_non_expired": "1",
                "account_non_locked": "1",
                "create_time": "10/7/2020",
                "credentials_non_expired": "1",
                "id": "100030017",
                "is_del": "1",
                "name": "15811111111",
                "password": "123456",
                "phone": "15811111111",
                "portrait": "",
                "reg_ip": "",
                "status": "DISABLE",
                "update_time": "13/7/2020"
            },
            {
                "account_non_expired": "1",
                "account_non_locked": "1",
                "create_time": "10/7/2020",
                "credentials_non_expired": "1",
                "id": "100030018",
                "is_del": "0",
                "name": "15588886123",
                "password": "123456",
                "phone": "15588886123",
                "portrait": "",
                "reg_ip": "",
                "status": "ENABLE",
                "update_time": "10/7/2020"
            },
            {
                "account_non_expired": "1",
                "account_non_locked": "1",
                "create_time": "10/7/2020",
                "credentials_non_expired": "1",
                "id": "100030019",
                "is_del": "0",
                "name": "15588886234",
                "password": "123456",
                "phone": "15588886234",
                "portrait": "https://edu-lagou.oss-cn-beijing.aliyuncs.com/images/2020/07/10/15943594999396473.png",
                "reg_ip": "",
                "status": "ENABLE",
                "update_time": "10/7/2020"
            },
            {
                "account_non_expired": "1",
                "account_non_locked": "1",
                "create_time": "10/7/2020",
                "credentials_non_expired": "1",
                "id": "100030020",
                "is_del": "0",
                "name": "18211111111",
                "password": "123456",
                "phone": "18211111111",
                "portrait": "",
                "reg_ip": "",
                "status": "ENABLE",
                "update_time": "10/7/2020"
            }
        ],
        "nextPage": 2,
        "pageNum": 1,
        "pageSize": 10,
        "prePage": 0,
        "size": 10,
        "total": 13
    },
    "message": "响应成功",
    "status_code": 200,
    "success": true
}